-992
-24 -40 -72 -64 -16 -40 688
-16 -32 -64 -48 -40 -56 -40 -80 552
-48 -24 -16 24 -80 -48 -8 -40 -8 -40 -32 536
8 -16 -24 -16 -16 -16 48 -72 -80 624
-72 -80 -32 -48 24 -16 -48 -24 -40 -56 -16 -16 424
32 -32 32 -56 -72 -72 648
-16 -72 -48 80 -48 688
-16 -48 -56 8 -64 -72 -72 -64 -48 -72 392
-72 -16 -40 -56 80 -80 -8 584
-40 -56 -16 -16 8 -48 -80 -40 -64 -64 -40 432
-40 -16 -16 -64 -64 -32 -48 -80 -40 -56 -32 -64 344
-80 -8 888
-16 8 -64 -16 40 -64 -64 -48 608
-16 -80 -64 -72 -64 -32 -24 -16 -56 496
-32 -8 -40 -80 -80 -32 -48 -56 -56 488
-8 24 -40 -32 856
8 -24 -40 -40 -24 -16 -24 -72 -48 624
-40 -32 24 -8 -72 -72 -32 -32 616
-48 -48 -16 856
128 -24 824
