-80 904
-992
-264 -256 -16 -48 -72 -32 8 -16 -8 200
608 -96 272
-80 -160 -240 488
-8 -8 -8 -8 -8 -8 -8 -8 864
184 -16 776
-240 -240 496
-400 -400 176
240 -240 496
168 -176 80 -160 376
328 -312 336
8 -16 24 -32 -40 -48 -56 -64 72 -80 472
256 -80 -160 -240 224
-112 -8 -8 -8 8 -8 -8 -8 -8 -8 -8 -8 -8 -8 -8 -8 -8 -8 -16 576
120 -128 728
-128 -64 -72 -80 616
992
992
-152 8 -16 -24 -32 -40 -48 616
