-88 -16 -88 -104 -120 96 -24 -136 -56 -192
-8 -64 904
-24 48 -144 8 -144 -176 400
-48 48 -48 24 -128 56 -80 -72 248 -112 48
-128 -24 -8 -96 -16 -8 40 -24 -128 -144 -88 48 -96 40
-32 -24 -120 -144 40 -8 200 -160 -120 -24 40
-40 -8 -24 176 -160 -8 72 -144 -200 -32 -16 -8 8
184 -184 -136 464
24 -40 -32 -144 368 -40 -152 -80 48
-24 240 -112 592
-200 -56 -160 -176 -104 -8 32 -112 -40 -32
144 -40 8 -40 16 -72 -112 64 -96 -40 80 -88 96
-176 -64 -144 -16 -8 24 -192 -136 168
-24 -152 -56 -168 -80 32 -144 -104 -80 -64 8
-96 -88 -8 -72 -16 -40 -128 -176 -8 -104 -80 8 -40 -8 -8
-8 32 -8 -56 16 -24 -56 -144 -24 -64 -72 -24 16 -184 -152
-136 -48 -80 -8 -72 -144 -136 -24 40 -8 -160 48
-48 -24 -40 64 -16 344 -120 280
-136 -24 -24 24 -8 24 -8 -176 -136 -96 -192 -40 8
-40 128 -136 24 -24 16 -176 -80 -88 -16 -16 160
